{
    "$id": "https://msea.science/2024-09/schema/event",
    "$schema": "https://json-schema.org/draft/2020-12/schema",
    "title": "Event Schema",
    "description": "A schema describing the habitat, observation, status or comment events.",
    "type": "object",
    "properties": {
        "type": {
            "description": "The type of event represented by this item.",
            "enum": ["observation", "habitat", "comment", "status"]
        },
        "medium_filename": {
            "description": "The filename of the medium associated with this event.",
            "type": "string"
        },
        "start_time": {
            "description": "The start time of the event.",
            "type": "string",
            "format": "date-time"
        },
        "end_time": {
            "description": "The end time of the event.",
            "type": "string",
            "format": "date-time"
        },
        "attributes": {
            "description": "A free-form dictionary of attributes pertaining to this event.",
            "type": "object"
        },
        "original_labels": {
            "description": "The original labels that generated this event.",
            "type": "array",
            "items": {
                "type": "string"
            }
        },
        "original_id": {
            "description": "The original ID of the annotation.",
            "type": "string"
        },
        "shape": {
            "description": "The shape of the object as generated by the annotation software (e.g., Biigle).",
            "type": "string"
        },
        "shape_area": {
            "description": "The area of the shape. TODO: no units, presumably m2?",
            "type": "number"
        },
        "frames": {
            "description": "A list of frame offsets (s) from the start of the video.",
            "type": "array",
            "items": {
                "type": "number"
            }
        },
        "tags": {
            "description": "A list of tags to refine the event's meaning.",
            "type": "array",
            "items": {
                "type": "string"
            }
        },
        "taxon": {
            "description": "Observation or habitat event: the ID of the taxon of the observed organism.",
            "type": "integer"
        },
        "observation_confidence": {
            "description": "Observation event: the observation confidence. An ID for an existing confidence.",
            "type": "integer"
        },
        "abundance": {
            "description": "Observation event: the abundance. An ID for an existing abundance.",
            "type": "integer"
        },
        "coverage": {
            "description": "Observation or habitat event: the coverage for an organism that is habitat-forming. An ID for an existing coverage.",
            "type": "integer"
        },
        "count": {
            "description": "The number of organisms comprising the observation.",
            "type": "integer"
        },
        "substrate": {
            "description": "Habitat event: the type of substrate. An ID of an existing substrate.",
            "type": "integer"
        },
        "substrate_coverage": {
            "description": "Habitat event: the substrate coverage. An ID of an existing substrate coverage.",
            "type": "integer"
        },
        "biocover": {
            "description": "Habitat event: the biocover. An ID of an existing biocover.",
            "type": "integer"
        },
        "biocover_coverage": {
            "description": "Habitat event: the biocover coverage. An ID of an existing biocover coverage.",
            "type": "integer"
        },
        "complexity": {
            "description": "Habitat event: the habitat complexity. An ID of an existing complexity.",
            "type": "integer"                        
        },
        "thickness": {
            "description": "Habitat event: the biocover thickness. An ID of an existing thickness.",
            "type": "integer"
        },
        "disturbance": {
            "description": "Habitat event: the habitat disturbance. An ID of an existing disturbance.",
            "type": "integer"
        },
        "relief": {
            "description": "Habitat event: the habitat relief. An ID of an existing relief.",
            "type": "integer"
        },
        "flow": {
            "description": "Habitat event: the flow condition. An ID of an existing flow.",
            "type": "integer"
        },
        "note": {
            "description": "Comment event: the text of the comment.",
            "type": "string"
        },
        "status_type_detail": {
            "description": "Status event: the status detail. An ID of an existing status type detail.",
            "type": "integer"
        },
        "annotation_job": {
            "description": "The ID of a reference to the annotation job.",
            "type": "integer"
        }
    }
}