{
    "$id": "https://msea.science/2024-09/schema/taxon",
    "$schema": "https://json-schema.org/draft/2020-12/schema",
    "title": "Taxon Schema",
    "description": "A schema describing the taxonomy for observtion events.",
    "type": "object",
    "properties": {
        "description": "A taxon.",
        "properties": {
            "hart": {
                "description": "The Hart code of the taxon.",
                "type": "string"
            },
            "aphia": {
                "description": "The Aphia ID of the taxon (WoRMS).",
                "type": "integer"
            },
            "inaturalist": {
                "description": "The iNaturalist ID of the taxon.",
                "type": "integer"
            },
            "original_label": {
                "description": "The original label of the taxon.",
                "type": "string"
            },
            "label": {
                "description": "The label of the taxon.",
                "type": "string"
            },
            "scientific_name": {
                "description": "The scientific name of the taxon.",
                "type": "string"
            },
            "common_name": {
                "description": "The common name of the taxon.",
                "type": "string"
            },
            "otu": {
                "description": "The operational taxonomic unit of the taxon.",
                "type": "string"
            }
        }
    }
}