{
	"comment_file_name": "The input file.",
	"file_name": ["Hypack_targets.csv", "other.csv"],
	
	"comment_label_tree": "The file that the label map is/will be saved to and loaded from.",
	"label_tree_file": "label_tree.json",

	"comment_id_column": "The column containing a unique ID for each row.",
	"id_column": "ID",
	
	"comment_annotator_column": "The column containing the name or initials of the annotator.",
	"annotator_column": "annotation_config",

	"comment_label_column": "The column to be mapped.",
	"label_column": "Name",
	
	"comment_time_column": "The time column. May or may not include a date component. If not, the separate date column provides the date part.",
	"time_column": "Time",
	
	"comment_time_format": "Format the time. Sometimes the spaces are extra, so the program uses spaces stripped out and the format reflects it by being space free.",
	"time_format": "%I:%M:%S",
	
	"comment_date_column": "The date of the record. Optional.",
	"date_column": "Date",
	
	"comment_date_format": "The date format string.",
	"date_format": "%m/%d/%Y",
	
	"comment_timezone_offset": "The number of hours to offset times to achieve GMT.",
	"timezone_offset": 0,

	"comment_medium_filename_column": "The column containing the video/photo filename.",
	"medium_filename_column": null,

	"timestamp_column_comment": "The name of a column that will be added to the dataset by scripts.",
	"timestamp_column": "timestamp"
	
}