<mxfile host="app.diagrams.net" modified="2022-09-26T23:01:57.105Z" agent="5.0 (Windows NT 10.0; Win64; x64) AppleWebKit/537.36 (KHTML, like Gecko) Chrome/105.0.0.0 Safari/537.36 Edg/105.0.1343.33" etag="NWb7SSz6u0s12TO2_v_2" version="20.3.6" type="gitlab">
  <diagram id="xj3nfegsUpFqBPRYh1fU" name="Page-1">
    <mxGraphModel dx="2844" dy="1524" grid="1" gridSize="10" guides="1" tooltips="1" connect="1" arrows="1" fold="1" page="1" pageScale="1" pageWidth="1100" pageHeight="2000" math="0" shadow="0">
      <root>
        <mxCell id="0" />
        <mxCell id="1" parent="0" />
        <mxCell id="wZfpG8BnRgAek69BgrAx-5" value="Pool" style="swimlane;childLayout=stackLayout;resizeParent=1;resizeParentMax=0;startSize=20;" vertex="1" parent="1">
          <mxGeometry x="40" width="880" height="1850" as="geometry" />
        </mxCell>
        <mxCell id="wZfpG8BnRgAek69BgrAx-6" value="Importer" style="swimlane;startSize=20;fillColor=#ffe6cc;strokeColor=#d79b00;" vertex="1" parent="wZfpG8BnRgAek69BgrAx-5">
          <mxGeometry y="20" width="160" height="1830" as="geometry" />
        </mxCell>
        <mxCell id="wZfpG8BnRgAek69BgrAx-21" value="Ingest" style="rounded=0;whiteSpace=wrap;html=1;" vertex="1" parent="wZfpG8BnRgAek69BgrAx-6">
          <mxGeometry x="40" y="160" width="80" height="40" as="geometry" />
        </mxCell>
        <mxCell id="wZfpG8BnRgAek69BgrAx-70" value="Ingest" style="rounded=0;whiteSpace=wrap;html=1;" vertex="1" parent="wZfpG8BnRgAek69BgrAx-6">
          <mxGeometry x="40" y="1640" width="80" height="40" as="geometry" />
        </mxCell>
        <mxCell id="wZfpG8BnRgAek69BgrAx-7" value="NDST" style="swimlane;startSize=20;fillColor=#d5e8d4;strokeColor=#82b366;" vertex="1" parent="wZfpG8BnRgAek69BgrAx-5">
          <mxGeometry x="160" y="20" width="160" height="1830" as="geometry" />
        </mxCell>
        <mxCell id="wZfpG8BnRgAek69BgrAx-20" value="Equipment Inventory" style="rounded=0;whiteSpace=wrap;html=1;" vertex="1" parent="wZfpG8BnRgAek69BgrAx-7">
          <mxGeometry x="40" y="40" width="80" height="40" as="geometry" />
        </mxCell>
        <mxCell id="wZfpG8BnRgAek69BgrAx-89" style="edgeStyle=orthogonalEdgeStyle;rounded=0;orthogonalLoop=1;jettySize=auto;html=1;exitX=0.5;exitY=1;exitDx=0;exitDy=0;entryX=0.5;entryY=0;entryDx=0;entryDy=0;" edge="1" parent="wZfpG8BnRgAek69BgrAx-7" source="wZfpG8BnRgAek69BgrAx-24" target="wZfpG8BnRgAek69BgrAx-87">
          <mxGeometry relative="1" as="geometry" />
        </mxCell>
        <mxCell id="wZfpG8BnRgAek69BgrAx-106" style="edgeStyle=orthogonalEdgeStyle;rounded=0;orthogonalLoop=1;jettySize=auto;html=1;exitX=0.25;exitY=1;exitDx=0;exitDy=0;entryX=0.25;entryY=0;entryDx=0;entryDy=0;" edge="1" parent="wZfpG8BnRgAek69BgrAx-7" source="wZfpG8BnRgAek69BgrAx-24" target="wZfpG8BnRgAek69BgrAx-77">
          <mxGeometry relative="1" as="geometry">
            <Array as="points">
              <mxPoint x="59" y="340" />
              <mxPoint x="20" y="340" />
              <mxPoint x="20" y="1220" />
              <mxPoint x="60" y="1220" />
            </Array>
          </mxGeometry>
        </mxCell>
        <mxCell id="wZfpG8BnRgAek69BgrAx-24" value="Equipment Configurations" style="rounded=0;whiteSpace=wrap;html=1;" vertex="1" parent="wZfpG8BnRgAek69BgrAx-7">
          <mxGeometry x="37.5" y="280" width="85" height="40" as="geometry" />
        </mxCell>
        <mxCell id="wZfpG8BnRgAek69BgrAx-28" value="Dives" style="rounded=0;whiteSpace=wrap;html=1;" vertex="1" parent="wZfpG8BnRgAek69BgrAx-7">
          <mxGeometry x="40" y="520" width="80" height="40" as="geometry" />
        </mxCell>
        <mxCell id="wZfpG8BnRgAek69BgrAx-29" value="Transects" style="rounded=0;whiteSpace=wrap;html=1;" vertex="1" parent="wZfpG8BnRgAek69BgrAx-7">
          <mxGeometry x="40" y="760" width="80" height="40" as="geometry" />
        </mxCell>
        <mxCell id="wZfpG8BnRgAek69BgrAx-30" value="Media Inventory" style="rounded=0;whiteSpace=wrap;html=1;" vertex="1" parent="wZfpG8BnRgAek69BgrAx-7">
          <mxGeometry x="40" y="1000" width="80" height="40" as="geometry" />
        </mxCell>
        <mxCell id="wZfpG8BnRgAek69BgrAx-77" value="Instrument&lt;br&gt;Data" style="rounded=0;whiteSpace=wrap;html=1;" vertex="1" parent="wZfpG8BnRgAek69BgrAx-7">
          <mxGeometry x="40" y="1240" width="80" height="40" as="geometry" />
        </mxCell>
        <mxCell id="wZfpG8BnRgAek69BgrAx-92" style="edgeStyle=orthogonalEdgeStyle;rounded=0;orthogonalLoop=1;jettySize=auto;html=1;exitX=0.5;exitY=1;exitDx=0;exitDy=0;entryX=0.5;entryY=0;entryDx=0;entryDy=0;" edge="1" parent="wZfpG8BnRgAek69BgrAx-7" source="wZfpG8BnRgAek69BgrAx-87" target="wZfpG8BnRgAek69BgrAx-28">
          <mxGeometry relative="1" as="geometry" />
        </mxCell>
        <mxCell id="wZfpG8BnRgAek69BgrAx-87" value="Dive Configurations" style="rounded=0;whiteSpace=wrap;html=1;" vertex="1" parent="wZfpG8BnRgAek69BgrAx-7">
          <mxGeometry x="37.5" y="400" width="85" height="40" as="geometry" />
        </mxCell>
        <mxCell id="wZfpG8BnRgAek69BgrAx-8" value="Chief Scientist" style="swimlane;startSize=20;fillColor=#fff2cc;strokeColor=#d6b656;" vertex="1" parent="wZfpG8BnRgAek69BgrAx-5">
          <mxGeometry x="320" y="20" width="240" height="1830" as="geometry">
            <mxRectangle x="250" y="20" width="40" height="1170" as="alternateBounds" />
          </mxGeometry>
        </mxCell>
        <mxCell id="wZfpG8BnRgAek69BgrAx-34" value="Dives" style="rounded=0;whiteSpace=wrap;html=1;" vertex="1" parent="wZfpG8BnRgAek69BgrAx-8">
          <mxGeometry x="80" y="640" width="80" height="40" as="geometry" />
        </mxCell>
        <mxCell id="wZfpG8BnRgAek69BgrAx-35" value="Transects" style="rounded=0;whiteSpace=wrap;html=1;" vertex="1" parent="wZfpG8BnRgAek69BgrAx-8">
          <mxGeometry x="80" y="880" width="80" height="40" as="geometry" />
        </mxCell>
        <mxCell id="wZfpG8BnRgAek69BgrAx-94" style="edgeStyle=orthogonalEdgeStyle;rounded=0;orthogonalLoop=1;jettySize=auto;html=1;exitX=0.5;exitY=1;exitDx=0;exitDy=0;entryX=0.75;entryY=0;entryDx=0;entryDy=0;" edge="1" parent="wZfpG8BnRgAek69BgrAx-8" source="wZfpG8BnRgAek69BgrAx-37" target="wZfpG8BnRgAek69BgrAx-36">
          <mxGeometry relative="1" as="geometry" />
        </mxCell>
        <mxCell id="wZfpG8BnRgAek69BgrAx-37" value="Programs" style="rounded=0;whiteSpace=wrap;html=1;" vertex="1" parent="wZfpG8BnRgAek69BgrAx-8">
          <mxGeometry x="140" y="280" width="80" height="40" as="geometry" />
        </mxCell>
        <mxCell id="wZfpG8BnRgAek69BgrAx-36" value="Cruises" style="rounded=0;whiteSpace=wrap;html=1;" vertex="1" parent="wZfpG8BnRgAek69BgrAx-8">
          <mxGeometry x="80" y="400" width="80" height="40" as="geometry" />
        </mxCell>
        <mxCell id="wZfpG8BnRgAek69BgrAx-47" value="Annotation Protocols" style="rounded=0;whiteSpace=wrap;html=1;" vertex="1" parent="wZfpG8BnRgAek69BgrAx-8">
          <mxGeometry x="80" y="1000" width="80" height="40" as="geometry" />
        </mxCell>
        <mxCell id="wZfpG8BnRgAek69BgrAx-93" style="edgeStyle=orthogonalEdgeStyle;rounded=0;orthogonalLoop=1;jettySize=auto;html=1;exitX=0.5;exitY=1;exitDx=0;exitDy=0;entryX=0.25;entryY=0;entryDx=0;entryDy=0;" edge="1" parent="wZfpG8BnRgAek69BgrAx-8" source="wZfpG8BnRgAek69BgrAx-38" target="wZfpG8BnRgAek69BgrAx-36">
          <mxGeometry relative="1" as="geometry" />
        </mxCell>
        <mxCell id="wZfpG8BnRgAek69BgrAx-38" value="FN Contacts" style="rounded=0;whiteSpace=wrap;html=1;" vertex="1" parent="wZfpG8BnRgAek69BgrAx-8">
          <mxGeometry x="20" y="280" width="80" height="40" as="geometry" />
        </mxCell>
        <mxCell id="wZfpG8BnRgAek69BgrAx-9" value="Annotator" style="swimlane;startSize=20;fillColor=#e1d5e7;strokeColor=#9673a6;" vertex="1" parent="wZfpG8BnRgAek69BgrAx-5">
          <mxGeometry x="560" y="20" width="160" height="1830" as="geometry" />
        </mxCell>
        <mxCell id="wZfpG8BnRgAek69BgrAx-98" style="edgeStyle=orthogonalEdgeStyle;rounded=0;orthogonalLoop=1;jettySize=auto;html=1;exitX=0.75;exitY=1;exitDx=0;exitDy=0;entryX=0.75;entryY=0;entryDx=0;entryDy=0;" edge="1" parent="wZfpG8BnRgAek69BgrAx-9" source="wZfpG8BnRgAek69BgrAx-48" target="wZfpG8BnRgAek69BgrAx-49">
          <mxGeometry relative="1" as="geometry" />
        </mxCell>
        <mxCell id="wZfpG8BnRgAek69BgrAx-48" value="Annotation Configs" style="rounded=0;whiteSpace=wrap;html=1;" vertex="1" parent="wZfpG8BnRgAek69BgrAx-9">
          <mxGeometry x="40" y="1120" width="80" height="40" as="geometry" />
        </mxCell>
        <mxCell id="wZfpG8BnRgAek69BgrAx-49" value="Annotations" style="rounded=0;whiteSpace=wrap;html=1;" vertex="1" parent="wZfpG8BnRgAek69BgrAx-9">
          <mxGeometry x="40" y="1240" width="80" height="40" as="geometry" />
        </mxCell>
        <mxCell id="wZfpG8BnRgAek69BgrAx-10" value="Field Worker" style="swimlane;startSize=20;fillColor=#dae8fc;strokeColor=#6c8ebf;" vertex="1" parent="wZfpG8BnRgAek69BgrAx-5">
          <mxGeometry x="720" y="20" width="160" height="1830" as="geometry" />
        </mxCell>
        <mxCell id="wZfpG8BnRgAek69BgrAx-57" value="Dive Logs" style="rounded=0;whiteSpace=wrap;html=1;" vertex="1" parent="wZfpG8BnRgAek69BgrAx-10">
          <mxGeometry x="40" y="400" width="80" height="40" as="geometry" />
        </mxCell>
        <mxCell id="wZfpG8BnRgAek69BgrAx-65" value="Transect Logs" style="rounded=0;whiteSpace=wrap;html=1;" vertex="1" parent="wZfpG8BnRgAek69BgrAx-10">
          <mxGeometry x="40" y="640" width="80" height="40" as="geometry" />
        </mxCell>
        <mxCell id="wZfpG8BnRgAek69BgrAx-118" value="Deck Logs" style="rounded=0;whiteSpace=wrap;html=1;" vertex="1" parent="wZfpG8BnRgAek69BgrAx-10">
          <mxGeometry x="40" y="1360" width="80" height="40" as="geometry" />
        </mxCell>
        <mxCell id="wZfpG8BnRgAek69BgrAx-119" value="Video Logs" style="rounded=0;whiteSpace=wrap;html=1;" vertex="1" parent="wZfpG8BnRgAek69BgrAx-10">
          <mxGeometry x="40" y="1480" width="80" height="40" as="geometry" />
        </mxCell>
        <mxCell id="wZfpG8BnRgAek69BgrAx-41" style="edgeStyle=orthogonalEdgeStyle;rounded=0;orthogonalLoop=1;jettySize=auto;html=1;exitX=0.5;exitY=1;exitDx=0;exitDy=0;entryX=0.5;entryY=0;entryDx=0;entryDy=0;strokeColor=#FF0000;strokeWidth=2;" edge="1" parent="wZfpG8BnRgAek69BgrAx-5" source="wZfpG8BnRgAek69BgrAx-20" target="wZfpG8BnRgAek69BgrAx-21">
          <mxGeometry relative="1" as="geometry">
            <Array as="points">
              <mxPoint x="240" y="140" />
              <mxPoint x="80" y="140" />
            </Array>
          </mxGeometry>
        </mxCell>
        <mxCell id="wZfpG8BnRgAek69BgrAx-42" style="edgeStyle=orthogonalEdgeStyle;rounded=0;orthogonalLoop=1;jettySize=auto;html=1;exitX=0.5;exitY=1;exitDx=0;exitDy=0;entryX=0.5;entryY=0;entryDx=0;entryDy=0;" edge="1" parent="wZfpG8BnRgAek69BgrAx-5" source="wZfpG8BnRgAek69BgrAx-21" target="wZfpG8BnRgAek69BgrAx-24">
          <mxGeometry relative="1" as="geometry" />
        </mxCell>
        <mxCell id="wZfpG8BnRgAek69BgrAx-46" style="edgeStyle=orthogonalEdgeStyle;rounded=0;orthogonalLoop=1;jettySize=auto;html=1;exitX=0.5;exitY=1;exitDx=0;exitDy=0;entryX=0.5;entryY=0;entryDx=0;entryDy=0;" edge="1" parent="wZfpG8BnRgAek69BgrAx-5" source="wZfpG8BnRgAek69BgrAx-29" target="wZfpG8BnRgAek69BgrAx-35">
          <mxGeometry relative="1" as="geometry" />
        </mxCell>
        <mxCell id="wZfpG8BnRgAek69BgrAx-90" style="edgeStyle=orthogonalEdgeStyle;rounded=0;orthogonalLoop=1;jettySize=auto;html=1;exitX=0.5;exitY=1;exitDx=0;exitDy=0;entryX=0.25;entryY=0;entryDx=0;entryDy=0;" edge="1" parent="wZfpG8BnRgAek69BgrAx-5" source="wZfpG8BnRgAek69BgrAx-36" target="wZfpG8BnRgAek69BgrAx-28">
          <mxGeometry relative="1" as="geometry">
            <Array as="points">
              <mxPoint x="440" y="500" />
              <mxPoint x="220" y="500" />
            </Array>
          </mxGeometry>
        </mxCell>
        <mxCell id="wZfpG8BnRgAek69BgrAx-91" style="edgeStyle=orthogonalEdgeStyle;rounded=0;orthogonalLoop=1;jettySize=auto;html=1;exitX=0.5;exitY=1;exitDx=0;exitDy=0;entryX=0.75;entryY=0;entryDx=0;entryDy=0;" edge="1" parent="wZfpG8BnRgAek69BgrAx-5" source="wZfpG8BnRgAek69BgrAx-57" target="wZfpG8BnRgAek69BgrAx-28">
          <mxGeometry relative="1" as="geometry">
            <Array as="points">
              <mxPoint x="800" y="520" />
              <mxPoint x="260" y="520" />
            </Array>
          </mxGeometry>
        </mxCell>
        <mxCell id="wZfpG8BnRgAek69BgrAx-95" style="edgeStyle=orthogonalEdgeStyle;rounded=0;orthogonalLoop=1;jettySize=auto;html=1;exitX=0.5;exitY=1;exitDx=0;exitDy=0;entryX=0.5;entryY=0;entryDx=0;entryDy=0;" edge="1" parent="wZfpG8BnRgAek69BgrAx-5" source="wZfpG8BnRgAek69BgrAx-28" target="wZfpG8BnRgAek69BgrAx-34">
          <mxGeometry relative="1" as="geometry" />
        </mxCell>
        <mxCell id="wZfpG8BnRgAek69BgrAx-96" style="edgeStyle=orthogonalEdgeStyle;rounded=0;orthogonalLoop=1;jettySize=auto;html=1;exitX=0.5;exitY=1;exitDx=0;exitDy=0;entryX=0.5;entryY=0;entryDx=0;entryDy=0;" edge="1" parent="wZfpG8BnRgAek69BgrAx-5" source="wZfpG8BnRgAek69BgrAx-65" target="wZfpG8BnRgAek69BgrAx-29">
          <mxGeometry relative="1" as="geometry" />
        </mxCell>
        <mxCell id="wZfpG8BnRgAek69BgrAx-97" style="edgeStyle=orthogonalEdgeStyle;rounded=0;orthogonalLoop=1;jettySize=auto;html=1;exitX=0.5;exitY=1;exitDx=0;exitDy=0;entryX=0.75;entryY=0;entryDx=0;entryDy=0;" edge="1" parent="wZfpG8BnRgAek69BgrAx-5" source="wZfpG8BnRgAek69BgrAx-47" target="wZfpG8BnRgAek69BgrAx-48">
          <mxGeometry relative="1" as="geometry">
            <Array as="points">
              <mxPoint x="440" y="1080" />
              <mxPoint x="660" y="1080" />
            </Array>
          </mxGeometry>
        </mxCell>
        <mxCell id="wZfpG8BnRgAek69BgrAx-99" style="edgeStyle=orthogonalEdgeStyle;rounded=0;orthogonalLoop=1;jettySize=auto;html=1;exitX=0.5;exitY=1;exitDx=0;exitDy=0;entryX=0.25;entryY=0;entryDx=0;entryDy=0;" edge="1" parent="wZfpG8BnRgAek69BgrAx-5" source="wZfpG8BnRgAek69BgrAx-30" target="wZfpG8BnRgAek69BgrAx-49">
          <mxGeometry relative="1" as="geometry">
            <Array as="points">
              <mxPoint x="240" y="1120" />
              <mxPoint x="480" y="1120" />
              <mxPoint x="480" y="1230" />
              <mxPoint x="620" y="1230" />
            </Array>
          </mxGeometry>
        </mxCell>
        <mxCell id="wZfpG8BnRgAek69BgrAx-104" style="edgeStyle=orthogonalEdgeStyle;rounded=0;orthogonalLoop=1;jettySize=auto;html=1;exitX=0.75;exitY=1;exitDx=0;exitDy=0;entryX=0.5;entryY=0;entryDx=0;entryDy=0;" edge="1" parent="wZfpG8BnRgAek69BgrAx-5" source="wZfpG8BnRgAek69BgrAx-34" target="wZfpG8BnRgAek69BgrAx-49">
          <mxGeometry relative="1" as="geometry">
            <Array as="points">
              <mxPoint x="460" y="770" />
              <mxPoint x="520" y="770" />
              <mxPoint x="520" y="1220" />
              <mxPoint x="640" y="1220" />
            </Array>
          </mxGeometry>
        </mxCell>
        <mxCell id="wZfpG8BnRgAek69BgrAx-105" style="edgeStyle=orthogonalEdgeStyle;rounded=0;orthogonalLoop=1;jettySize=auto;html=1;exitX=0.75;exitY=1;exitDx=0;exitDy=0;entryX=0.25;entryY=0;entryDx=0;entryDy=0;" edge="1" parent="wZfpG8BnRgAek69BgrAx-5" source="wZfpG8BnRgAek69BgrAx-24" target="wZfpG8BnRgAek69BgrAx-49">
          <mxGeometry relative="1" as="geometry">
            <Array as="points">
              <mxPoint x="261" y="360" />
              <mxPoint x="300" y="360" />
              <mxPoint x="300" y="1240" />
              <mxPoint x="620" y="1240" />
            </Array>
          </mxGeometry>
        </mxCell>
        <mxCell id="wZfpG8BnRgAek69BgrAx-107" style="edgeStyle=orthogonalEdgeStyle;rounded=0;orthogonalLoop=1;jettySize=auto;html=1;exitX=0.5;exitY=1;exitDx=0;exitDy=0;entryX=0.75;entryY=0;entryDx=0;entryDy=0;" edge="1" parent="wZfpG8BnRgAek69BgrAx-5" source="wZfpG8BnRgAek69BgrAx-34" target="wZfpG8BnRgAek69BgrAx-77">
          <mxGeometry relative="1" as="geometry">
            <Array as="points">
              <mxPoint x="440" y="770" />
              <mxPoint x="360" y="770" />
              <mxPoint x="360" y="1200" />
              <mxPoint x="260" y="1200" />
            </Array>
          </mxGeometry>
        </mxCell>
        <mxCell id="wZfpG8BnRgAek69BgrAx-108" style="edgeStyle=orthogonalEdgeStyle;rounded=0;orthogonalLoop=1;jettySize=auto;html=1;exitX=0.5;exitY=1;exitDx=0;exitDy=0;entryX=0.5;entryY=0;entryDx=0;entryDy=0;strokeColor=#FF0000;strokeWidth=2;" edge="1" parent="wZfpG8BnRgAek69BgrAx-5" source="wZfpG8BnRgAek69BgrAx-77" target="wZfpG8BnRgAek69BgrAx-70">
          <mxGeometry relative="1" as="geometry">
            <Array as="points">
              <mxPoint x="240" y="1340" />
              <mxPoint x="80" y="1340" />
            </Array>
          </mxGeometry>
        </mxCell>
        <mxCell id="wZfpG8BnRgAek69BgrAx-109" style="edgeStyle=orthogonalEdgeStyle;rounded=0;orthogonalLoop=1;jettySize=auto;html=1;exitX=0.5;exitY=1;exitDx=0;exitDy=0;entryX=0.5;entryY=0;entryDx=0;entryDy=0;strokeColor=#FF0000;strokeWidth=2;" edge="1" parent="wZfpG8BnRgAek69BgrAx-5" source="wZfpG8BnRgAek69BgrAx-49" target="wZfpG8BnRgAek69BgrAx-70">
          <mxGeometry relative="1" as="geometry">
            <Array as="points">
              <mxPoint x="640" y="1340" />
              <mxPoint x="80" y="1340" />
            </Array>
          </mxGeometry>
        </mxCell>
        <mxCell id="wZfpG8BnRgAek69BgrAx-110" style="edgeStyle=orthogonalEdgeStyle;rounded=0;orthogonalLoop=1;jettySize=auto;html=1;exitX=0.5;exitY=1;exitDx=0;exitDy=0;entryX=0.5;entryY=0;entryDx=0;entryDy=0;strokeColor=#FF0000;strokeWidth=2;" edge="1" parent="wZfpG8BnRgAek69BgrAx-5" source="wZfpG8BnRgAek69BgrAx-48" target="wZfpG8BnRgAek69BgrAx-70">
          <mxGeometry relative="1" as="geometry">
            <Array as="points">
              <mxPoint x="640" y="1200" />
              <mxPoint x="580" y="1200" />
              <mxPoint x="580" y="1340" />
              <mxPoint x="80" y="1340" />
            </Array>
          </mxGeometry>
        </mxCell>
        <mxCell id="wZfpG8BnRgAek69BgrAx-111" style="edgeStyle=orthogonalEdgeStyle;rounded=0;orthogonalLoop=1;jettySize=auto;html=1;exitX=0.25;exitY=1;exitDx=0;exitDy=0;entryX=0.5;entryY=0;entryDx=0;entryDy=0;strokeColor=#FF0000;strokeWidth=2;" edge="1" parent="wZfpG8BnRgAek69BgrAx-5" source="wZfpG8BnRgAek69BgrAx-47" target="wZfpG8BnRgAek69BgrAx-70">
          <mxGeometry relative="1" as="geometry">
            <Array as="points">
              <mxPoint x="420" y="1340" />
              <mxPoint x="80" y="1340" />
            </Array>
          </mxGeometry>
        </mxCell>
        <mxCell id="wZfpG8BnRgAek69BgrAx-112" style="edgeStyle=orthogonalEdgeStyle;rounded=0;orthogonalLoop=1;jettySize=auto;html=1;exitX=0.5;exitY=1;exitDx=0;exitDy=0;entryX=0.5;entryY=0;entryDx=0;entryDy=0;strokeColor=#FF0000;strokeWidth=2;" edge="1" parent="wZfpG8BnRgAek69BgrAx-5" source="wZfpG8BnRgAek69BgrAx-35" target="wZfpG8BnRgAek69BgrAx-70">
          <mxGeometry relative="1" as="geometry">
            <Array as="points">
              <mxPoint x="440" y="960" />
              <mxPoint x="380" y="960" />
              <mxPoint x="380" y="1160" />
              <mxPoint x="80" y="1160" />
            </Array>
          </mxGeometry>
        </mxCell>
        <mxCell id="wZfpG8BnRgAek69BgrAx-113" style="edgeStyle=orthogonalEdgeStyle;rounded=0;orthogonalLoop=1;jettySize=auto;html=1;exitX=0.25;exitY=1;exitDx=0;exitDy=0;strokeColor=#FF0000;strokeWidth=2;" edge="1" parent="wZfpG8BnRgAek69BgrAx-5" source="wZfpG8BnRgAek69BgrAx-34" target="wZfpG8BnRgAek69BgrAx-70">
          <mxGeometry relative="1" as="geometry">
            <Array as="points">
              <mxPoint x="420" y="720" />
              <mxPoint x="380" y="720" />
              <mxPoint x="380" y="1160" />
              <mxPoint x="80" y="1160" />
            </Array>
          </mxGeometry>
        </mxCell>
        <mxCell id="wZfpG8BnRgAek69BgrAx-114" style="edgeStyle=orthogonalEdgeStyle;rounded=0;orthogonalLoop=1;jettySize=auto;html=1;exitX=0.25;exitY=1;exitDx=0;exitDy=0;strokeColor=#FF0000;strokeWidth=2;" edge="1" parent="wZfpG8BnRgAek69BgrAx-5" source="wZfpG8BnRgAek69BgrAx-65" target="wZfpG8BnRgAek69BgrAx-70">
          <mxGeometry relative="1" as="geometry">
            <Array as="points">
              <mxPoint x="780" y="960" />
              <mxPoint x="380" y="960" />
              <mxPoint x="380" y="1160" />
              <mxPoint x="80" y="1160" />
            </Array>
          </mxGeometry>
        </mxCell>
        <mxCell id="wZfpG8BnRgAek69BgrAx-115" style="edgeStyle=orthogonalEdgeStyle;rounded=0;orthogonalLoop=1;jettySize=auto;html=1;exitX=0.25;exitY=1;exitDx=0;exitDy=0;strokeColor=#FF0000;strokeWidth=2;" edge="1" parent="wZfpG8BnRgAek69BgrAx-5" source="wZfpG8BnRgAek69BgrAx-36" target="wZfpG8BnRgAek69BgrAx-70">
          <mxGeometry relative="1" as="geometry">
            <Array as="points">
              <mxPoint x="420" y="480" />
              <mxPoint x="380" y="480" />
              <mxPoint x="380" y="1160" />
              <mxPoint x="80" y="1160" />
            </Array>
          </mxGeometry>
        </mxCell>
        <mxCell id="wZfpG8BnRgAek69BgrAx-116" style="edgeStyle=orthogonalEdgeStyle;rounded=0;orthogonalLoop=1;jettySize=auto;html=1;exitX=0.25;exitY=1;exitDx=0;exitDy=0;strokeColor=#FF0000;strokeWidth=2;" edge="1" parent="wZfpG8BnRgAek69BgrAx-5" source="wZfpG8BnRgAek69BgrAx-57" target="wZfpG8BnRgAek69BgrAx-70">
          <mxGeometry relative="1" as="geometry">
            <Array as="points">
              <mxPoint x="780" y="480" />
              <mxPoint x="380" y="480" />
              <mxPoint x="380" y="1160" />
              <mxPoint x="80" y="1160" />
            </Array>
          </mxGeometry>
        </mxCell>
        <mxCell id="wZfpG8BnRgAek69BgrAx-120" style="edgeStyle=orthogonalEdgeStyle;rounded=0;orthogonalLoop=1;jettySize=auto;html=1;exitX=0.5;exitY=1;exitDx=0;exitDy=0;entryX=0.5;entryY=0;entryDx=0;entryDy=0;strokeColor=#FF0000;strokeWidth=2;" edge="1" parent="wZfpG8BnRgAek69BgrAx-5" source="wZfpG8BnRgAek69BgrAx-118" target="wZfpG8BnRgAek69BgrAx-70">
          <mxGeometry relative="1" as="geometry">
            <Array as="points">
              <mxPoint x="800" y="1460" />
              <mxPoint x="80" y="1460" />
            </Array>
          </mxGeometry>
        </mxCell>
        <mxCell id="wZfpG8BnRgAek69BgrAx-121" style="edgeStyle=orthogonalEdgeStyle;rounded=0;orthogonalLoop=1;jettySize=auto;html=1;exitX=0.5;exitY=1;exitDx=0;exitDy=0;entryX=0.5;entryY=0;entryDx=0;entryDy=0;strokeColor=#FF0000;strokeWidth=2;" edge="1" parent="wZfpG8BnRgAek69BgrAx-5" source="wZfpG8BnRgAek69BgrAx-119" target="wZfpG8BnRgAek69BgrAx-70">
          <mxGeometry relative="1" as="geometry">
            <Array as="points">
              <mxPoint x="800" y="1580" />
              <mxPoint x="80" y="1580" />
            </Array>
          </mxGeometry>
        </mxCell>
        <mxCell id="wZfpG8BnRgAek69BgrAx-117" style="edgeStyle=orthogonalEdgeStyle;rounded=0;orthogonalLoop=1;jettySize=auto;html=1;exitX=0;exitY=0.5;exitDx=0;exitDy=0;strokeColor=#FF0000;strokeWidth=2;" edge="1" parent="wZfpG8BnRgAek69BgrAx-5" source="wZfpG8BnRgAek69BgrAx-24" target="wZfpG8BnRgAek69BgrAx-70">
          <mxGeometry relative="1" as="geometry">
            <mxPoint x="80" y="1380" as="targetPoint" />
          </mxGeometry>
        </mxCell>
      </root>
    </mxGraphModel>
  </diagram>
</mxfile>
