<mxfile host="app.diagrams.net" modified="2023-01-19T17:59:54.176Z" agent="5.0 (Windows NT 10.0; Win64; x64) AppleWebKit/537.36 (KHTML, like Gecko) Chrome/108.0.0.0 Safari/537.36 Edg/108.0.1462.42" etag="yF9sYu3VBSdZyhlsWN7X" version="20.8.5" type="gitlab">
  <diagram id="-6kySTrExgtHpdjuC5dn" name="Page-1">
    <mxGraphModel dx="1195" dy="-463" grid="1" gridSize="10" guides="1" tooltips="1" connect="1" arrows="1" fold="1" page="1" pageScale="1" pageWidth="850" pageHeight="1100" math="0" shadow="0">
      <root>
        <mxCell id="0" />
        <mxCell id="1" parent="0" />
        <mxCell id="kXDC-x8krosdPjIvOuQz-12" value="person" style="rounded=1;whiteSpace=wrap;html=1;shadow=0;glass=0;sketch=0;fillColor=#dae8fc;strokeColor=#6c8ebf;" parent="1" vertex="1">
          <mxGeometry x="1180" y="1750" width="120" height="60" as="geometry" />
        </mxCell>
        <mxCell id="TZ_HtNehJ2HDqIolmCS6-37" style="edgeStyle=orthogonalEdgeStyle;rounded=0;orthogonalLoop=1;jettySize=auto;html=1;exitX=0;exitY=0.5;exitDx=0;exitDy=0;entryX=1;entryY=0.25;entryDx=0;entryDy=0;startArrow=classic;startFill=1;endArrow=none;endFill=0;" parent="1" source="kXDC-x8krosdPjIvOuQz-21" target="kXDC-x8krosdPjIvOuQz-33" edge="1">
          <mxGeometry relative="1" as="geometry">
            <Array as="points">
              <mxPoint x="930" y="1700" />
              <mxPoint x="930" y="1725" />
            </Array>
          </mxGeometry>
        </mxCell>
        <mxCell id="kXDC-x8krosdPjIvOuQz-21" value="instrument_configs" style="rounded=1;whiteSpace=wrap;html=1;shadow=0;glass=0;sketch=0;fillColor=#f5f5f5;strokeColor=#666666;fontColor=#333333;" parent="1" vertex="1">
          <mxGeometry x="980" y="1670" width="120" height="60" as="geometry" />
        </mxCell>
        <mxCell id="r-8R7KUkHinvwVaW3_n0-3" style="edgeStyle=orthogonalEdgeStyle;rounded=0;orthogonalLoop=1;jettySize=auto;html=1;exitX=1;exitY=0.75;exitDx=0;exitDy=0;entryX=0;entryY=0.5;entryDx=0;entryDy=0;" parent="1" source="kXDC-x8krosdPjIvOuQz-33" target="r-8R7KUkHinvwVaW3_n0-2" edge="1">
          <mxGeometry relative="1" as="geometry" />
        </mxCell>
        <mxCell id="r-8R7KUkHinvwVaW3_n0-46" style="edgeStyle=orthogonalEdgeStyle;rounded=0;orthogonalLoop=1;jettySize=auto;html=1;exitX=0.5;exitY=1;exitDx=0;exitDy=0;entryX=0.5;entryY=0;entryDx=0;entryDy=0;strokeColor=default;startArrow=none;startFill=0;endArrow=classic;endFill=1;" parent="1" source="kXDC-x8krosdPjIvOuQz-33" target="RfTriIsFZcnnxI9EXmdb-4" edge="1">
          <mxGeometry relative="1" as="geometry" />
        </mxCell>
        <mxCell id="kXDC-x8krosdPjIvOuQz-33" value="annotation_config" style="rounded=1;whiteSpace=wrap;html=1;shadow=0;glass=0;sketch=0;fillColor=#d5e8d4;strokeColor=#82b366;" parent="1" vertex="1">
          <mxGeometry x="780" y="1710" width="120" height="60" as="geometry" />
        </mxCell>
        <mxCell id="kXDC-x8krosdPjIvOuQz-43" value="iNaturalist/&lt;br&gt;WoRMs/&lt;br&gt;Hart, etc." style="rounded=1;whiteSpace=wrap;html=1;fillColor=#f5f5f5;strokeColor=#666666;fontColor=#333333;" parent="1" vertex="1">
          <mxGeometry x="420" y="1870" width="120" height="60" as="geometry" />
        </mxCell>
        <mxCell id="RfTriIsFZcnnxI9EXmdb-4" value="annotation_protocol" style="rounded=1;whiteSpace=wrap;html=1;fillColor=#d5e8d4;strokeColor=#82b366;" parent="1" vertex="1">
          <mxGeometry x="780" y="1870" width="120" height="60" as="geometry" />
        </mxCell>
        <mxCell id="8nTkOaqlSRIJHRVoJqbz-10" style="edgeStyle=orthogonalEdgeStyle;rounded=0;orthogonalLoop=1;jettySize=auto;html=1;exitX=0;exitY=0.5;exitDx=0;exitDy=0;entryX=1;entryY=0.5;entryDx=0;entryDy=0;startArrow=classic;startFill=1;endArrow=none;endFill=0;" parent="1" source="8nTkOaqlSRIJHRVoJqbz-3" target="RfTriIsFZcnnxI9EXmdb-4" edge="1">
          <mxGeometry relative="1" as="geometry" />
        </mxCell>
        <mxCell id="8nTkOaqlSRIJHRVoJqbz-3" value="annotation_software" style="rounded=1;whiteSpace=wrap;html=1;fillColor=#f5f5f5;strokeColor=#666666;fontColor=#333333;" parent="1" vertex="1">
          <mxGeometry x="980" y="1870" width="120" height="60" as="geometry" />
        </mxCell>
        <mxCell id="r-8R7KUkHinvwVaW3_n0-6" style="edgeStyle=orthogonalEdgeStyle;rounded=0;orthogonalLoop=1;jettySize=auto;html=1;exitX=1;exitY=0.5;exitDx=0;exitDy=0;entryX=0;entryY=0.5;entryDx=0;entryDy=0;startArrow=classic;startFill=1;endArrow=none;endFill=0;" parent="1" source="kXDC-x8krosdPjIvOuQz-44" target="r-8R7KUkHinvwVaW3_n0-1" edge="1">
          <mxGeometry relative="1" as="geometry" />
        </mxCell>
        <mxCell id="r-8R7KUkHinvwVaW3_n0-49" style="edgeStyle=orthogonalEdgeStyle;rounded=0;orthogonalLoop=1;jettySize=auto;html=1;exitX=0.5;exitY=1;exitDx=0;exitDy=0;entryX=0.5;entryY=0;entryDx=0;entryDy=0;strokeColor=default;startArrow=none;startFill=0;endArrow=classic;endFill=1;" parent="1" source="kXDC-x8krosdPjIvOuQz-44" target="kXDC-x8krosdPjIvOuQz-43" edge="1">
          <mxGeometry relative="1" as="geometry" />
        </mxCell>
        <mxCell id="kXDC-x8krosdPjIvOuQz-44" value="taxon" style="rounded=1;whiteSpace=wrap;html=1;fillColor=#f8cecc;strokeColor=#b85450;" parent="1" vertex="1">
          <mxGeometry x="420" y="1710" width="120" height="60" as="geometry" />
        </mxCell>
        <mxCell id="8nTkOaqlSRIJHRVoJqbz-45" style="edgeStyle=orthogonalEdgeStyle;rounded=0;orthogonalLoop=1;jettySize=auto;html=1;exitX=0;exitY=0.25;exitDx=0;exitDy=0;entryX=1;entryY=0.5;entryDx=0;entryDy=0;startArrow=none;startFill=0;endArrow=classic;endFill=1;" parent="1" edge="1">
          <mxGeometry relative="1" as="geometry">
            <mxPoint x="580" y="1100.0000000000002" as="targetPoint" />
          </mxGeometry>
        </mxCell>
        <mxCell id="8nTkOaqlSRIJHRVoJqbz-46" style="edgeStyle=orthogonalEdgeStyle;rounded=0;orthogonalLoop=1;jettySize=auto;html=1;exitX=0;exitY=0.5;exitDx=0;exitDy=0;entryX=1;entryY=0.5;entryDx=0;entryDy=0;startArrow=none;startFill=0;endArrow=classic;endFill=1;" parent="1" edge="1">
          <mxGeometry relative="1" as="geometry">
            <mxPoint x="580" y="1190.0000000000002" as="targetPoint" />
          </mxGeometry>
        </mxCell>
        <mxCell id="r-8R7KUkHinvwVaW3_n0-5" style="edgeStyle=orthogonalEdgeStyle;rounded=0;orthogonalLoop=1;jettySize=auto;html=1;exitX=1;exitY=0.5;exitDx=0;exitDy=0;entryX=0;entryY=0.5;entryDx=0;entryDy=0;" parent="1" source="r-8R7KUkHinvwVaW3_n0-1" target="RfTriIsFZcnnxI9EXmdb-4" edge="1">
          <mxGeometry relative="1" as="geometry" />
        </mxCell>
        <mxCell id="r-8R7KUkHinvwVaW3_n0-1" value="annotation_protocol_taxon" style="rounded=1;whiteSpace=wrap;html=1;fillColor=#f8cecc;strokeColor=#b85450;" parent="1" vertex="1">
          <mxGeometry x="565" y="1710" width="150" height="60" as="geometry" />
        </mxCell>
        <mxCell id="r-8R7KUkHinvwVaW3_n0-4" style="edgeStyle=orthogonalEdgeStyle;rounded=0;orthogonalLoop=1;jettySize=auto;html=1;exitX=1;exitY=0.5;exitDx=0;exitDy=0;entryX=0;entryY=0.5;entryDx=0;entryDy=0;" parent="1" source="r-8R7KUkHinvwVaW3_n0-2" target="kXDC-x8krosdPjIvOuQz-12" edge="1">
          <mxGeometry relative="1" as="geometry" />
        </mxCell>
        <mxCell id="r-8R7KUkHinvwVaW3_n0-2" value="annotation_config_logger" style="rounded=1;whiteSpace=wrap;html=1;fillColor=#f5f5f5;fontColor=#333333;strokeColor=#666666;" parent="1" vertex="1">
          <mxGeometry x="965" y="1750" width="150" height="60" as="geometry" />
        </mxCell>
        <mxCell id="r-8R7KUkHinvwVaW3_n0-56" style="edgeStyle=orthogonalEdgeStyle;rounded=0;orthogonalLoop=1;jettySize=auto;html=1;exitX=0.5;exitY=1;exitDx=0;exitDy=0;strokeColor=default;startArrow=none;startFill=0;endArrow=classic;endFill=1;entryX=0.25;entryY=0;entryDx=0;entryDy=0;" parent="1" source="r-8R7KUkHinvwVaW3_n0-10" target="kXDC-x8krosdPjIvOuQz-21" edge="1">
          <mxGeometry relative="1" as="geometry">
            <Array as="points">
              <mxPoint x="480" y="1620" />
              <mxPoint x="1010" y="1620" />
            </Array>
          </mxGeometry>
        </mxCell>
        <mxCell id="r-8R7KUkHinvwVaW3_n0-10" value="measurement/&lt;br&gt;position" style="rounded=1;whiteSpace=wrap;html=1;fillColor=#f5f5f5;fontColor=#333333;strokeColor=#666666;fontStyle=1" parent="1" vertex="1">
          <mxGeometry x="420" y="1470" width="120" height="60" as="geometry" />
        </mxCell>
        <mxCell id="r-8R7KUkHinvwVaW3_n0-59" style="edgeStyle=orthogonalEdgeStyle;rounded=0;orthogonalLoop=1;jettySize=auto;html=1;exitX=0.25;exitY=1;exitDx=0;exitDy=0;strokeColor=default;startArrow=none;startFill=0;endArrow=classic;endFill=1;entryX=0.25;entryY=0;entryDx=0;entryDy=0;" parent="1" source="r-8R7KUkHinvwVaW3_n0-11" edge="1" target="r-8R7KUkHinvwVaW3_n0-1">
          <mxGeometry relative="1" as="geometry">
            <mxPoint x="640" y="1710" as="targetPoint" />
            <Array as="points">
              <mxPoint x="610" y="1600" />
              <mxPoint x="603" y="1600" />
              <mxPoint x="603" y="1710" />
            </Array>
          </mxGeometry>
        </mxCell>
        <mxCell id="r-8R7KUkHinvwVaW3_n0-60" style="edgeStyle=orthogonalEdgeStyle;rounded=0;orthogonalLoop=1;jettySize=auto;html=1;exitX=0.75;exitY=1;exitDx=0;exitDy=0;entryX=0.25;entryY=0;entryDx=0;entryDy=0;strokeColor=default;startArrow=none;startFill=0;endArrow=classic;endFill=1;" parent="1" source="r-8R7KUkHinvwVaW3_n0-11" target="kXDC-x8krosdPjIvOuQz-33" edge="1">
          <mxGeometry relative="1" as="geometry">
            <Array as="points">
              <mxPoint x="670" y="1600" />
              <mxPoint x="810" y="1600" />
            </Array>
          </mxGeometry>
        </mxCell>
        <mxCell id="r-8R7KUkHinvwVaW3_n0-11" value="observation event" style="rounded=1;whiteSpace=wrap;html=1;fillColor=#f5f5f5;fontColor=#333333;strokeColor=#666666;fontStyle=1" parent="1" vertex="1">
          <mxGeometry x="580" y="1470" width="120" height="60" as="geometry" />
        </mxCell>
        <mxCell id="r-8R7KUkHinvwVaW3_n0-43" style="edgeStyle=orthogonalEdgeStyle;rounded=0;orthogonalLoop=1;jettySize=auto;html=1;exitX=0.25;exitY=1;exitDx=0;exitDy=0;entryX=0.75;entryY=0;entryDx=0;entryDy=0;dashed=1;strokeColor=default;startArrow=none;startFill=0;endArrow=classic;endFill=1;" parent="1" source="r-8R7KUkHinvwVaW3_n0-22" target="r-8R7KUkHinvwVaW3_n0-11" edge="1">
          <mxGeometry relative="1" as="geometry" />
        </mxCell>
        <mxCell id="r-8R7KUkHinvwVaW3_n0-44" style="edgeStyle=orthogonalEdgeStyle;rounded=0;orthogonalLoop=1;jettySize=auto;html=1;exitX=0.75;exitY=1;exitDx=0;exitDy=0;entryX=0.25;entryY=0;entryDx=0;entryDy=0;dashed=1;strokeColor=default;startArrow=none;startFill=0;endArrow=classic;endFill=1;" parent="1" source="r-8R7KUkHinvwVaW3_n0-22" target="r-8R7KUkHinvwVaW3_n0-42" edge="1">
          <mxGeometry relative="1" as="geometry" />
        </mxCell>
        <mxCell id="r-8R7KUkHinvwVaW3_n0-22" value="lookup_mappings" style="rounded=0;whiteSpace=wrap;html=1;fillColor=#ffe6cc;strokeColor=#d79b00;" parent="1" vertex="1">
          <mxGeometry x="660" y="1350" width="120" height="60" as="geometry" />
        </mxCell>
        <mxCell id="r-8R7KUkHinvwVaW3_n0-41" style="edgeStyle=orthogonalEdgeStyle;rounded=0;orthogonalLoop=1;jettySize=auto;html=1;exitX=0.5;exitY=1;exitDx=0;exitDy=0;strokeColor=default;startArrow=none;startFill=0;endArrow=classic;endFill=1;dashed=1;entryX=0.75;entryY=0;entryDx=0;entryDy=0;" parent="1" source="r-8R7KUkHinvwVaW3_n0-24" target="r-8R7KUkHinvwVaW3_n0-10" edge="1">
          <mxGeometry relative="1" as="geometry">
            <mxPoint x="480" y="1470" as="targetPoint" />
          </mxGeometry>
        </mxCell>
        <mxCell id="r-8R7KUkHinvwVaW3_n0-24" value="field_configs" style="rounded=0;whiteSpace=wrap;html=1;fillColor=#ffe6cc;strokeColor=#d79b00;" parent="1" vertex="1">
          <mxGeometry x="500" y="1350" width="120" height="60" as="geometry" />
        </mxCell>
        <mxCell id="r-8R7KUkHinvwVaW3_n0-38" style="edgeStyle=orthogonalEdgeStyle;rounded=0;orthogonalLoop=1;jettySize=auto;html=1;exitX=0.5;exitY=1;exitDx=0;exitDy=0;entryX=0.25;entryY=0;entryDx=0;entryDy=0;dashed=1;strokeColor=default;startArrow=none;startFill=0;endArrow=classic;endFill=1;" parent="1" source="r-8R7KUkHinvwVaW3_n0-25" target="r-8R7KUkHinvwVaW3_n0-28" edge="1">
          <mxGeometry relative="1" as="geometry" />
        </mxCell>
        <mxCell id="r-8R7KUkHinvwVaW3_n0-25" value="media_configs" style="rounded=0;whiteSpace=wrap;html=1;fillColor=#ffe6cc;strokeColor=#d79b00;" parent="1" vertex="1">
          <mxGeometry x="820" y="1350" width="120" height="60" as="geometry" />
        </mxCell>
        <mxCell id="r-8R7KUkHinvwVaW3_n0-55" style="edgeStyle=orthogonalEdgeStyle;rounded=0;orthogonalLoop=1;jettySize=auto;html=1;exitX=0.5;exitY=1;exitDx=0;exitDy=0;entryX=0.75;entryY=0;entryDx=0;entryDy=0;strokeColor=default;startArrow=none;startFill=0;endArrow=classic;endFill=1;" parent="1" source="r-8R7KUkHinvwVaW3_n0-28" target="kXDC-x8krosdPjIvOuQz-21" edge="1">
          <mxGeometry relative="1" as="geometry">
            <Array as="points">
              <mxPoint x="960" y="1600" />
              <mxPoint x="1070" y="1600" />
            </Array>
          </mxGeometry>
        </mxCell>
        <mxCell id="r-8R7KUkHinvwVaW3_n0-28" value="media" style="rounded=1;whiteSpace=wrap;html=1;fillColor=#f5f5f5;fontColor=#333333;strokeColor=#666666;fontStyle=1" parent="1" vertex="1">
          <mxGeometry x="900" y="1470" width="120" height="60" as="geometry" />
        </mxCell>
        <mxCell id="r-8R7KUkHinvwVaW3_n0-50" style="edgeStyle=orthogonalEdgeStyle;rounded=0;orthogonalLoop=1;jettySize=auto;html=1;exitX=0.5;exitY=1;exitDx=0;exitDy=0;strokeColor=default;startArrow=none;startFill=0;endArrow=classic;endFill=1;entryX=0.5;entryY=0;entryDx=0;entryDy=0;" parent="1" source="r-8R7KUkHinvwVaW3_n0-30" target="r-8R7KUkHinvwVaW3_n0-10" edge="1">
          <mxGeometry relative="1" as="geometry">
            <Array as="points">
              <mxPoint x="720" y="1320" />
              <mxPoint x="480" y="1320" />
            </Array>
          </mxGeometry>
        </mxCell>
        <mxCell id="r-8R7KUkHinvwVaW3_n0-51" style="edgeStyle=orthogonalEdgeStyle;rounded=0;orthogonalLoop=1;jettySize=auto;html=1;exitX=0.5;exitY=1;exitDx=0;exitDy=0;entryX=0.5;entryY=0;entryDx=0;entryDy=0;strokeColor=default;startArrow=none;startFill=0;endArrow=classic;endFill=1;" parent="1" source="r-8R7KUkHinvwVaW3_n0-30" target="r-8R7KUkHinvwVaW3_n0-11" edge="1">
          <mxGeometry relative="1" as="geometry">
            <Array as="points">
              <mxPoint x="720" y="1320" />
              <mxPoint x="640" y="1320" />
            </Array>
          </mxGeometry>
        </mxCell>
        <mxCell id="r-8R7KUkHinvwVaW3_n0-52" style="edgeStyle=orthogonalEdgeStyle;rounded=0;orthogonalLoop=1;jettySize=auto;html=1;exitX=0.5;exitY=1;exitDx=0;exitDy=0;entryX=0.5;entryY=0;entryDx=0;entryDy=0;strokeColor=default;startArrow=none;startFill=0;endArrow=classic;endFill=1;" parent="1" source="r-8R7KUkHinvwVaW3_n0-30" target="r-8R7KUkHinvwVaW3_n0-42" edge="1">
          <mxGeometry relative="1" as="geometry">
            <Array as="points">
              <mxPoint x="720" y="1320" />
              <mxPoint x="800" y="1320" />
            </Array>
          </mxGeometry>
        </mxCell>
        <mxCell id="r-8R7KUkHinvwVaW3_n0-53" style="edgeStyle=orthogonalEdgeStyle;rounded=0;orthogonalLoop=1;jettySize=auto;html=1;exitX=0.5;exitY=1;exitDx=0;exitDy=0;strokeColor=default;startArrow=none;startFill=0;endArrow=classic;endFill=1;" parent="1" source="r-8R7KUkHinvwVaW3_n0-30" target="r-8R7KUkHinvwVaW3_n0-28" edge="1">
          <mxGeometry relative="1" as="geometry">
            <Array as="points">
              <mxPoint x="720" y="1320" />
              <mxPoint x="960" y="1320" />
            </Array>
          </mxGeometry>
        </mxCell>
        <mxCell id="r-8R7KUkHinvwVaW3_n0-30" value="[annotations]" style="rounded=0;whiteSpace=wrap;html=1;fillColor=#e1d5e7;strokeColor=#9673a6;" parent="1" vertex="1">
          <mxGeometry x="660" y="1230" width="120" height="60" as="geometry" />
        </mxCell>
        <mxCell id="r-8R7KUkHinvwVaW3_n0-57" style="edgeStyle=orthogonalEdgeStyle;rounded=0;orthogonalLoop=1;jettySize=auto;html=1;exitX=0.25;exitY=1;exitDx=0;exitDy=0;strokeColor=default;startArrow=none;startFill=0;endArrow=classic;endFill=1;entryX=0.75;entryY=0;entryDx=0;entryDy=0;" parent="1" source="r-8R7KUkHinvwVaW3_n0-42" target="r-8R7KUkHinvwVaW3_n0-1" edge="1">
          <mxGeometry relative="1" as="geometry">
            <mxPoint x="660" y="1700" as="targetPoint" />
            <Array as="points">
              <mxPoint x="770" y="1640" />
              <mxPoint x="678" y="1640" />
            </Array>
          </mxGeometry>
        </mxCell>
        <mxCell id="r-8R7KUkHinvwVaW3_n0-61" style="edgeStyle=orthogonalEdgeStyle;rounded=0;orthogonalLoop=1;jettySize=auto;html=1;exitX=0.75;exitY=1;exitDx=0;exitDy=0;entryX=0.75;entryY=0;entryDx=0;entryDy=0;strokeColor=default;startArrow=none;startFill=0;endArrow=classic;endFill=1;" parent="1" source="r-8R7KUkHinvwVaW3_n0-42" target="kXDC-x8krosdPjIvOuQz-33" edge="1">
          <mxGeometry relative="1" as="geometry">
            <Array as="points">
              <mxPoint x="830" y="1600" />
              <mxPoint x="870" y="1600" />
            </Array>
          </mxGeometry>
        </mxCell>
        <mxCell id="r-8R7KUkHinvwVaW3_n0-42" value="habitat event" style="rounded=1;whiteSpace=wrap;html=1;fillColor=#f5f5f5;fontColor=#333333;strokeColor=#666666;fontStyle=1" parent="1" vertex="1">
          <mxGeometry x="740" y="1470" width="120" height="60" as="geometry" />
        </mxCell>
        <mxCell id="NQqOZdz-_tqjsYLUIrC2-1" value="restriction" style="rounded=1;whiteSpace=wrap;html=1;fillColor=#fff2cc;strokeColor=#d6b656;" vertex="1" parent="1">
          <mxGeometry x="260" y="1590" width="120" height="60" as="geometry" />
        </mxCell>
        <mxCell id="NQqOZdz-_tqjsYLUIrC2-5" style="edgeStyle=orthogonalEdgeStyle;rounded=0;orthogonalLoop=1;jettySize=auto;html=1;exitX=0.5;exitY=0;exitDx=0;exitDy=0;entryX=0.5;entryY=1;entryDx=0;entryDy=0;" edge="1" parent="1" source="NQqOZdz-_tqjsYLUIrC2-2" target="NQqOZdz-_tqjsYLUIrC2-3">
          <mxGeometry relative="1" as="geometry" />
        </mxCell>
        <mxCell id="NQqOZdz-_tqjsYLUIrC2-9" style="edgeStyle=orthogonalEdgeStyle;rounded=0;orthogonalLoop=1;jettySize=auto;html=1;exitX=0.5;exitY=1;exitDx=0;exitDy=0;entryX=0.5;entryY=0;entryDx=0;entryDy=0;" edge="1" parent="1" source="NQqOZdz-_tqjsYLUIrC2-2" target="NQqOZdz-_tqjsYLUIrC2-1">
          <mxGeometry relative="1" as="geometry" />
        </mxCell>
        <mxCell id="NQqOZdz-_tqjsYLUIrC2-2" value="mseauser_restriction" style="rounded=1;whiteSpace=wrap;html=1;fillColor=#fff2cc;strokeColor=#d6b656;" vertex="1" parent="1">
          <mxGeometry x="260" y="1470" width="120" height="60" as="geometry" />
        </mxCell>
        <mxCell id="NQqOZdz-_tqjsYLUIrC2-3" value="mseauser" style="rounded=1;whiteSpace=wrap;html=1;fillColor=#f5f5f5;fontColor=#333333;strokeColor=#666666;" vertex="1" parent="1">
          <mxGeometry x="260" y="1350" width="120" height="60" as="geometry" />
        </mxCell>
        <mxCell id="NQqOZdz-_tqjsYLUIrC2-6" style="edgeStyle=orthogonalEdgeStyle;rounded=0;orthogonalLoop=1;jettySize=auto;html=1;exitX=1;exitY=0.5;exitDx=0;exitDy=0;entryX=0;entryY=0.5;entryDx=0;entryDy=0;" edge="1" parent="1" source="NQqOZdz-_tqjsYLUIrC2-4" target="kXDC-x8krosdPjIvOuQz-44">
          <mxGeometry relative="1" as="geometry" />
        </mxCell>
        <mxCell id="NQqOZdz-_tqjsYLUIrC2-7" style="edgeStyle=orthogonalEdgeStyle;rounded=0;orthogonalLoop=1;jettySize=auto;html=1;exitX=0.5;exitY=0;exitDx=0;exitDy=0;entryX=0.5;entryY=1;entryDx=0;entryDy=0;" edge="1" parent="1" source="NQqOZdz-_tqjsYLUIrC2-4" target="NQqOZdz-_tqjsYLUIrC2-1">
          <mxGeometry relative="1" as="geometry" />
        </mxCell>
        <mxCell id="NQqOZdz-_tqjsYLUIrC2-4" value="taxon_restriction" style="rounded=1;whiteSpace=wrap;html=1;fillColor=#f8cecc;strokeColor=#b85450;" vertex="1" parent="1">
          <mxGeometry x="260" y="1710" width="120" height="60" as="geometry" />
        </mxCell>
      </root>
    </mxGraphModel>
  </diagram>
</mxfile>
